521382315700781076 bruhmley
856340031999311872 mat
162502976521371648 haz
242780754621366272 elias
335208806944342028 raghavm
463902004117372930 moopy
525396913294671953 zave
389576827754250241 kognise
239770148305764352 prussia
528564781217611776 eligma
552150120691400714 ?
368083908862017537 macs
358481146171883520 abc
487258918465306634 wade
422837173671428097 leon
486743617973649408 ?
237236044599263232 slip
580268737907654656 kakashi
340008586639835138 amasad
403948474728579083 wet
220663962616856576 zwack
338875655108427777 dcb
370382683936915456 feenicks
584094609303404549 ?
345777538162884620 mreconomical
628298193922424857 redacted
437048770237169666 timchen
182268850778144768 turbio
563288428788056064 ?
359017688867012628 minx
356108561232953344 taeb
365958975201738764 ?
267062179918774273 jackfly
339943808584384512 scoder
340008586639835138 fluffin
656291485850927115 ?
524413155212787743 spotandjake
249600780712017920 roylatgnail
613042749217701908 dart
374886124126208000 harmeet
688889174912401417 coderman51
379323214087585814 sixbeeps
456220387148169236 hithere
678335216154181666 grify
534218348830130177 lordpos
677290033253711874 eekboi
191314099320258561 ?
614577566228938817 sushi
650159987665928212 sugarfi
683497679434809456 someone, idk
231628302152892427 piero
700436934702399509 raidtheweb
715591423633784844 spacefire
529266365123657729 graph egg